PROJETO 2/simulation/qsim/PBL2.msim.vcd
$comment
	File created using the following command:
		vcd file PBL2.msim.vcd -direction
$end
$date
	Mon Nov 27 23:10:18 2023
$end
$version
	ModelSim Version 2020.1
$end
$timescale
	1ps
$end

$scope module PBL2_vlg_vec_tst $end
$var reg 1 ! CH0 $end
$var reg 1 " CH1 $end
$var reg 1 # CH2 $end
$var reg 1 $ CH3 $end
$var reg 1 % CH4 $end
$var reg 1 & CH5 $end
$var reg 1 ' CH6 $end
$var reg 1 ( CH7 $end
$var reg 1 ) clk $end
$var wire 1 * LED0 $end
$var wire 1 + LED1 $end
$var wire 1 , LED2 $end
$var wire 1 - LED3 $end
$var wire 1 . LED4 $end
$var wire 1 / LED5 $end
$var wire 1 0 LED6 $end
$var wire 1 1 LED7 $end
$var wire 1 2 LED8 $end
$var wire 1 3 LED9 $end
$var wire 1 4 MATRIZ_C0 $end
$var wire 1 5 MATRIZ_C1 $end
$var wire 1 6 MATRIZ_C2 $end
$var wire 1 7 MATRIZ_C3 $end
$var wire 1 8 MATRIZ_C4 $end
$var wire 1 9 MATRIZ_L0 $end
$var wire 1 : MATRIZ_L1 $end
$var wire 1 ; MATRIZ_L2 $end
$var wire 1 < MATRIZ_L3 $end
$var wire 1 = MATRIZ_L4 $end
$var wire 1 > MATRIZ_L5 $end
$var wire 1 ? MATRIZ_L6 $end
$var wire 1 @ SEG7_A $end
$var wire 1 A SEG7_B $end
$var wire 1 B SEG7_C $end
$var wire 1 C SEG7_D $end
$var wire 1 D SEG7_E $end
$var wire 1 E SEG7_F $end
$var wire 1 F SEG7_G $end
$var wire 1 G teste0 $end
$var wire 1 H teste1 $end
$var wire 1 I teste2 $end

$scope module i1 $end
$var wire 1 J gnd $end
$var wire 1 K vcc $end
$var wire 1 L unknown $end
$var tri1 1 M devclrn $end
$var tri1 1 N devpor $end
$var tri1 1 O devoe $end
$var wire 1 P clk~combout $end
$var wire 1 Q CH0~combout $end
$var wire 1 R divisor_clk|d0|q~regout $end
$var wire 1 S divisor_clk|d1|q~regout $end
$var wire 1 T divisor_clk|d2|q~regout $end
$var wire 1 U divisor_clk|d3|q~regout $end
$var wire 1 V divisor_clk|d4|q~regout $end
$var wire 1 W divisor_clk|d5|q~regout $end
$var wire 1 X divisor_clk|d6|q~regout $end
$var wire 1 Y divisor_clk|d7|q~regout $end
$var wire 1 Z divisor_clk|d8|q~regout $end
$var wire 1 [ divisor_clk|d9|q~regout $end
$var wire 1 \ contador|d0|q~regout $end
$var wire 1 ] contador|d1|q~regout $end
$var wire 1 ^ contador|d2|q~regout $end
$var wire 1 _ lig_linha3~0_combout $end
$var wire 1 ` lig_linha3~1_combout $end
$var wire 1 a lig_linha3~2_combout $end
$var wire 1 b lig_linha3~3_combout $end
$var wire 1 c lig_linha3~4_combout $end
$var wire 1 d lig_linha3~5_combout $end
$var wire 1 e lig_linha3~6_combout $end
$var wire 1 f mux8_1|out7~0_combout $end
$var wire 1 g mux8_1|out8~0_combout $end
$var wire 1 h mux8_1|out9~0_combout $end
$var wire 1 i mux8_1|out10~0_combout $end
$upscope $end
$upscope $end
$enddefinitions $end
#0
$dumpvars
1!
x"
x#
x$
x%
x&
x'
x(
0)
0*
0+
0,
0-
0.
0/
00
01
02
03
04
05
16
07
08
09
0:
0;
0<
0=
0>
0?
0@
0A
0B
0C
0D
0E
0F
0G
0H
0I
0J
1K
xL
1M
1N
1O
0P
1Q
0R
0S
0T
0U
0V
0W
0X
0Y
0Z
0[
0\
0]
0^
0_
0`
0a
0b
0c
0d
0e
1f
0g
1h
0i
$end
#20
1)
1P
1R
1*
1S
1+
1T
1,
1U
1-
1V
1.
1W
1/
1X
10
1Y
11
1Z
12
1[
1^
1]
1\
0h
1_
1i
06
18
19
17
#40
0)
0P
#60
1)
1P
0R
0*
#80
0)
0P
#100
1)
1P
1R
1*
0S
0+
#120
0)
0P
#140
1)
1P
0R
0*
#160
0)
0P
#180
1)
1P
1R
1*
1S
1+
0T
0,
#200
0)
0P
#220
1)
1P
0R
0*
#240
0)
0P
#260
1)
1P
1R
1*
0S
0+
#280
0)
0P
#300
1)
1P
0R
0*
#320
0)
0P
#340
1)
1P
1R
1*
1S
1+
1T
1,
0U
0-
#360
0)
0P
#380
1)
1P
0R
0*
#400
0)
0P
#420
1)
1P
1R
1*
0S
0+
#440
0)
0P
#460
1)
1P
0R
0*
#480
0)
0P
#500
1)
1P
1R
1*
1S
1+
0T
0,
#520
0)
0P
#540
1)
1P
0R
0*
#560
0)
0P
#580
1)
1P
1R
1*
0S
0+
#600
0)
0P
#620
1)
1P
0R
0*
#640
0)
0P
#660
1)
1P
1R
1*
1S
1+
1T
1,
1U
1-
0V
0.
#680
0)
0P
#700
1)
1P
0R
0*
#720
0)
0P
#740
1)
1P
1R
1*
0S
0+
#760
0)
0P
#780
1)
1P
0R
0*
#800
0)
0P
#820
1)
1P
1R
1*
1S
1+
0T
0,
#840
0)
0P
#860
1)
1P
0R
0*
#880
0)
0P
#900
1)
1P
1R
1*
0S
0+
#920
0)
0P
#940
1)
1P
0R
0*
#960
0)
0P
#980
1)
1P
1R
1*
1S
1+
1T
1,
0U
0-
#1000
0)
0P
#1020
1)
1P
0R
0*
#1040
0)
0P
#1060
1)
1P
1R
1*
0S
0+
#1080
0)
0P
#1100
1)
1P
0R
0*
#1120
0)
0P
#1140
1)
1P
1R
1*
1S
1+
0T
0,
#1160
0)
0P
#1180
1)
1P
0R
0*
#1200
0)
0P
#1220
1)
1P
1R
1*
0S
0+
#1240
0)
0P
#1260
1)
1P
0R
0*
#1280
0)
0P
#1300
1)
1P
1R
1*
1S
1+
1T
1,
1U
1-
1V
1.
0W
0/
#1320
0)
0P
#1340
1)
1P
0R
0*
#1360
0)
0P
#1380
1)
1P
1R
1*
0S
0+
#1400
0)
0P
#1420
1)
1P
0R
0*
#1440
0)
0P
#1460
1)
1P
1R
1*
1S
1+
0T
0,
#1480
0)
0P
#1500
1)
1P
0R
0*
#1520
0)
0P
#1540
1)
1P
1R
1*
0S
0+
#1560
0)
0P
#1580
1)
1P
0R
0*
#1600
0)
0P
#1620
1)
1P
1R
1*
1S
1+
1T
1,
0U
0-
#1640
0)
0P
#1660
1)
1P
0R
0*
#1680
0)
0P
#1700
1)
1P
1R
1*
0S
0+
#1720
0)
0P
#1740
1)
1P
0R
0*
#1760
0)
0P
#1780
1)
1P
1R
1*
1S
1+
0T
0,
#1800
0)
0P
#1820
1)
1P
0R
0*
#1840
0)
0P
#1860
1)
1P
1R
1*
0S
0+
#1880
0)
0P
#1900
1)
1P
0R
0*
#1920
0)
0P
#1940
1)
1P
1R
1*
1S
1+
1T
1,
1U
1-
0V
0.
#1960
0)
0P
#1980
1)
1P
0R
0*
#2000
0)
0P
#2020
1)
1P
1R
1*
0S
0+
#2040
0)
0P
#2060
1)
1P
0R
0*
#2080
0)
0P
#2100
1)
1P
1R
1*
1S
1+
0T
0,
#2120
0)
0P
#2140
1)
1P
0R
0*
#2160
0)
0P
#2180
1)
1P
1R
1*
0S
0+
#2200
0)
0P
#2220
1)
1P
0R
0*
#2240
0)
0P
#2260
1)
1P
1R
1*
1S
1+
1T
1,
0U
0-
#2280
0)
0P
#2300
1)
1P
0R
0*
#2320
0)
0P
#2340
1)
1P
1R
1*
0S
0+
#2360
0)
0P
#2380
1)
1P
0R
0*
#2400
0)
0P
#2420
1)
1P
1R
1*
1S
1+
0T
0,
#2440
0)
0P
#2460
1)
1P
0R
0*
#2480
0)
0P
#2500
1)
1P
1R
1*
0S
0+
#2520
0)
0P
#2540
1)
1P
0R
0*
#2560
0)
0P
#2580
1)
1P
1R
1*
1S
1+
1T
1,
1U
1-
1V
1.
1W
1/
0X
00
#2600
0)
0P
#2620
1)
1P
0R
0*
#2640
0)
0P
#2660
1)
1P
1R
1*
0S
0+
#2680
0)
0P
#2700
1)
1P
0R
0*
#2720
0)
0P
#2740
1)
1P
1R
1*
1S
1+
0T
0,
#2760
0)
0P
#2780
1)
1P
0R
0*
#2800
0)
0P
#2820
1)
1P
1R
1*
0S
0+
#2840
0)
0P
#2860
1)
1P
0R
0*
#2880
0)
0P
#2900
1)
1P
1R
1*
1S
1+
1T
1,
0U
0-
#2920
0)
0P
#2940
1)
1P
0R
0*
#2960
0)
0P
#2980
1)
1P
1R
1*
0S
0+
#3000
0)
0P
#3020
1)
1P
0R
0*
#3040
0)
0P
#3060
1)
1P
1R
1*
1S
1+
0T
0,
#3080
0)
0P
#3100
1)
1P
0R
0*
#3120
0)
0P
#3140
1)
1P
1R
1*
0S
0+
#3160
0)
0P
#3180
1)
1P
0R
0*
#3200
0)
0P
#3220
1)
1P
1R
1*
1S
1+
1T
1,
1U
1-
0V
0.
#3240
0)
0P
#3260
1)
1P
0R
0*
#3280
0)
0P
#3300
1)
1P
1R
1*
0S
0+
#3320
0)
0P
#3340
1)
1P
0R
0*
#3360
0)
0P
#3380
1)
1P
1R
1*
1S
1+
0T
0,
#3400
0)
0P
#3420
1)
1P
0R
0*
#3440
0)
0P
#3460
1)
1P
1R
1*
0S
0+
#3480
0)
0P
#3500
1)
1P
0R
0*
#3520
0)
0P
#3540
1)
1P
1R
1*
1S
1+
1T
1,
0U
0-
#3560
0)
0P
#3580
1)
1P
0R
0*
#3600
0)
0P
#3620
1)
1P
1R
1*
0S
0+
#3640
0)
0P
#3660
1)
1P
0R
0*
#3680
0)
0P
#3700
1)
1P
1R
1*
1S
1+
0T
0,
#3720
0)
0P
#3740
1)
1P
0R
0*
#3760
0)
0P
#3780
1)
1P
1R
1*
0S
0+
#3800
0)
0P
#3820
1)
1P
0R
0*
#3840
0)
0P
#3860
1)
1P
1R
1*
1S
1+
1T
1,
1U
1-
1V
1.
0W
0/
#3880
0)
0P
#3900
1)
1P
0R
0*
#3920
0)
0P
#3940
1)
1P
1R
1*
0S
0+
#3960
0)
0P
#3980
1)
1P
0R
0*
#4000
0)
0P
#4020
1)
1P
1R
1*
1S
1+
0T
0,
#4040
0)
0P
#4060
1)
1P
0R
0*
#4080
0)
0P
#4100
1)
1P
1R
1*
0S
0+
#4120
0)
0P
#4140
1)
1P
0R
0*
#4160
0)
0P
#4180
1)
1P
1R
1*
1S
1+
1T
1,
0U
0-
#4200
0)
0P
#4220
1)
1P
0R
0*
#4240
0)
0P
#4260
1)
1P
1R
1*
0S
0+
#4280
0)
0P
#4300
1)
1P
0R
0*
#4320
0)
0P
#4340
1)
1P
1R
1*
1S
1+
0T
0,
#4360
0)
0P
#4380
1)
1P
0R
0*
#4400
0)
0P
#4420
1)
1P
1R
1*
0S
0+
#4440
0)
0P
#4460
1)
1P
0R
0*
#4480
0)
0P
#4500
1)
1P
1R
1*
1S
1+
1T
1,
1U
1-
0V
0.
#4520
0)
0P
#4540
1)
1P
0R
0*
#4560
0)
0P
#4580
1)
1P
1R
1*
0S
0+
#4600
0)
0P
#4620
1)
1P
0R
0*
#4640
0)
0P
#4660
1)
1P
1R
1*
1S
1+
0T
0,
#4680
0)
0P
#4700
1)
1P
0R
0*
#4720
0)
0P
#4740
1)
1P
1R
1*
0S
0+
#4760
0)
0P
#4780
1)
1P
0R
0*
#4800
0)
0P
#4820
1)
1P
1R
1*
1S
1+
1T
1,
0U
0-
#4840
0)
0P
#4860
1)
1P
0R
0*
#4880
0)
0P
#4900
1)
1P
1R
1*
0S
0+
#4920
0)
0P
#4940
1)
1P
0R
0*
#4960
0)
0P
#4980
1)
1P
1R
1*
1S
1+
0T
0,
#5000
0)
0P
#5020
1)
1P
0R
0*
#5040
0)
0P
#5060
1)
1P
1R
1*
0S
0+
#5080
0)
0P
#5100
1)
1P
0R
0*
#5120
0)
0P
#5140
1)
1P
1R
1*
1S
1+
1T
1,
1U
1-
1V
1.
1W
1/
1X
10
0Y
01
#5160
0)
0P
#5180
1)
1P
0R
0*
#5200
0)
0P
#5220
1)
1P
1R
1*
0S
0+
#5240
0)
0P
#5260
1)
1P
0R
0*
#5280
0)
0P
#5300
1)
1P
1R
1*
1S
1+
0T
0,
#5320
0)
0P
#5340
1)
1P
0R
0*
#5360
0)
0P
#5380
1)
1P
1R
1*
0S
0+
#5400
0)
0P
#5420
1)
1P
0R
0*
#5440
0)
0P
#5460
1)
1P
1R
1*
1S
1+
1T
1,
0U
0-
#5480
0)
0P
#5500
1)
1P
0R
0*
#5520
0)
0P
#5540
1)
1P
1R
1*
0S
0+
#5560
0)
0P
#5580
1)
1P
0R
0*
#5600
0)
0P
#5620
1)
1P
1R
1*
1S
1+
0T
0,
#5640
0)
0P
#5660
1)
1P
0R
0*
#5680
0)
0P
#5700
1)
1P
1R
1*
0S
0+
#5720
0)
0P
#5740
1)
1P
0R
0*
#5760
0)
0P
#5780
1)
1P
1R
1*
1S
1+
1T
1,
1U
1-
0V
0.
#5800
0)
0P
#5820
1)
1P
0R
0*
#5840
0)
0P
#5860
1)
1P
1R
1*
0S
0+
#5880
0)
0P
#5900
1)
1P
0R
0*
#5920
0)
0P
#5940
1)
1P
1R
1*
1S
1+
0T
0,
#5960
0)
0P
#5980
1)
1P
0R
0*
#6000
0)
0P
#6020
1)
1P
1R
1*
0S
0+
#6040
0)
0P
#6060
1)
1P
0R
0*
#6080
0)
0P
#6100
1)
1P
1R
1*
1S
1+
1T
1,
0U
0-
#6120
0)
0P
#6140
1)
1P
0R
0*
#6160
0)
0P
#6180
1)
1P
1R
1*
0S
0+
#6200
0)
0P
#6220
1)
1P
0R
0*
#6240
0)
0P
#6260
1)
1P
1R
1*
1S
1+
0T
0,
#6280
0)
0P
#6300
1)
1P
0R
0*
#6320
0)
0P
#6340
1)
1P
1R
1*
0S
0+
#6360
0)
0P
#6380
1)
1P
0R
0*
#6400
0)
0P
#6420
1)
1P
1R
1*
1S
1+
1T
1,
1U
1-
1V
1.
0W
0/
#6440
0)
0P
#6460
1)
1P
0R
0*
#6480
0)
0P
#6500
1)
1P
1R
1*
0S
0+
#6520
0)
0P
#6540
1)
1P
0R
0*
#6560
0)
0P
#6580
1)
1P
1R
1*
1S
1+
0T
0,
#6600
0)
0P
#6620
1)
1P
0R
0*
#6640
0)
0P
#6660
1)
1P
1R
1*
0S
0+
#6680
0)
0P
#6700
1)
1P
0R
0*
#6720
0)
0P
#6740
1)
1P
1R
1*
1S
1+
1T
1,
0U
0-
#6760
0)
0P
#6780
1)
1P
0R
0*
#6800
0)
0P
#6820
1)
1P
1R
1*
0S
0+
#6840
0)
0P
#6860
1)
1P
0R
0*
#6880
0)
0P
#6900
1)
1P
1R
1*
1S
1+
0T
0,
#6920
0)
0P
#6940
1)
1P
0R
0*
#6960
0)
0P
#6980
1)
1P
1R
1*
0S
0+
#7000
0)
0P
#7020
1)
1P
0R
0*
#7040
0)
0P
#7060
1)
1P
1R
1*
1S
1+
1T
1,
1U
1-
0V
0.
#7080
0)
0P
#7100
1)
1P
0R
0*
#7120
0)
0P
#7140
1)
1P
1R
1*
0S
0+
#7160
0)
0P
#7180
1)
1P
0R
0*
#7200
0)
0P
#7220
1)
1P
1R
1*
1S
1+
0T
0,
#7240
0)
0P
#7260
1)
1P
0R
0*
#7280
0)
0P
#7300
1)
1P
1R
1*
0S
0+
#7320
0)
0P
#7340
1)
1P
0R
0*
#7360
0)
0P
#7380
1)
1P
1R
1*
1S
1+
1T
1,
0U
0-
#7400
0)
0P
#7420
1)
1P
0R
0*
#7440
0)
0P
#7460
1)
1P
1R
1*
0S
0+
#7480
0)
0P
#7500
1)
1P
0R
0*
#7520
0)
0P
#7540
1)
1P
1R
1*
1S
1+
0T
0,
#7560
0)
0P
#7580
1)
1P
0R
0*
#7600
0)
0P
#7620
1)
1P
1R
1*
0S
0+
#7640
0)
0P
#7660
1)
1P
0R
0*
#7680
0)
0P
#7700
1)
1P
1R
1*
1S
1+
1T
1,
1U
1-
1V
1.
1W
1/
0X
00
#7720
0)
0P
#7740
1)
1P
0R
0*
#7760
0)
0P
#7780
1)
1P
1R
1*
0S
0+
#7800
0)
0P
#7820
1)
1P
0R
0*
#7840
0)
0P
#7860
1)
1P
1R
1*
1S
1+
0T
0,
#7880
0)
0P
#7900
1)
1P
0R
0*
#7920
0)
0P
#7940
1)
1P
1R
1*
0S
0+
#7960
0)
0P
#7980
1)
1P
0R
0*
#8000
0)
0P
#8020
1)
1P
1R
1*
1S
1+
1T
1,
0U
0-
#8040
0)
0P
#8060
1)
1P
0R
0*
#8080
0)
0P
#8100
1)
1P
1R
1*
0S
0+
#8120
0)
0P
#8140
1)
1P
0R
0*
#8160
0)
0P
#8180
1)
1P
1R
1*
1S
1+
0T
0,
#8200
0)
0P
#8220
1)
1P
0R
0*
#8240
0)
0P
#8260
1)
1P
1R
1*
0S
0+
#8280
0)
0P
#8300
1)
1P
0R
0*
#8320
0)
0P
#8340
1)
1P
1R
1*
1S
1+
1T
1,
1U
1-
0V
0.
#8360
0)
0P
#8380
1)
1P
0R
0*
#8400
0)
0P
#8420
1)
1P
1R
1*
0S
0+
#8440
0)
0P
#8460
1)
1P
0R
0*
#8480
0)
0P
#8500
1)
1P
1R
1*
1S
1+
0T
0,
#8520
0)
0P
#8540
1)
1P
0R
0*
#8560
0)
0P
#8580
1)
1P
1R
1*
0S
0+
#8600
0)
0P
#8620
1)
1P
0R
0*
#8640
0)
0P
#8660
1)
1P
1R
1*
1S
1+
1T
1,
0U
0-
#8680
0)
0P
#8700
1)
1P
0R
0*
#8720
0)
0P
#8740
1)
1P
1R
1*
0S
0+
#8760
0)
0P
#8780
1)
1P
0R
0*
#8800
0)
0P
#8820
1)
1P
1R
1*
1S
1+
0T
0,
#8840
0)
0P
#8860
1)
1P
0R
0*
#8880
0)
0P
#8900
1)
1P
1R
1*
0S
0+
#8920
0)
0P
#8940
1)
1P
0R
0*
#8960
0)
0P
#8980
1)
1P
1R
1*
1S
1+
1T
1,
1U
1-
1V
1.
0W
0/
#9000
0)
0P
#9020
1)
1P
0R
0*
#9040
0)
0P
#9060
1)
1P
1R
1*
0S
0+
#9080
0)
0P
#9100
1)
1P
0R
0*
#9120
0)
0P
#9140
1)
1P
1R
1*
1S
1+
0T
0,
#9160
0)
0P
#9180
1)
1P
0R
0*
#9200
0)
0P
#9220
1)
1P
1R
1*
0S
0+
#9240
0)
0P
#9260
1)
1P
0R
0*
#9280
0)
0P
#9300
1)
1P
1R
1*
1S
1+
1T
1,
0U
0-
#9320
0)
0P
#9340
1)
1P
0R
0*
#9360
0)
0P
#9380
1)
1P
1R
1*
0S
0+
#9400
0)
0P
#9420
1)
1P
0R
0*
#9440
0)
0P
#9460
1)
1P
1R
1*
1S
1+
0T
0,
#9480
0)
0P
#9500
1)
1P
0R
0*
#9520
0)
0P
#9540
1)
1P
1R
1*
0S
0+
#9560
0)
0P
#9580
1)
1P
0R
0*
#9600
0)
0P
#9620
1)
1P
1R
1*
1S
1+
1T
1,
1U
1-
0V
0.
#9640
0)
0P
#9660
1)
1P
0R
0*
#9680
0)
0P
#9700
1)
1P
1R
1*
0S
0+
#9720
0)
0P
#9740
1)
1P
0R
0*
#9760
0)
0P
#9780
1)
1P
1R
1*
1S
1+
0T
0,
#9800
0)
0P
#9820
1)
1P
0R
0*
#9840
0)
0P
#9860
1)
1P
1R
1*
0S
0+
#9880
0)
0P
#9900
1)
1P
0R
0*
#9920
0)
0P
#9940
1)
1P
1R
1*
1S
1+
1T
1,
0U
0-
#9960
0)
0P
#9980
1)
1P
0R
0*
#10000
0)
0P
#10020
1)
1P
1R
1*
0S
0+
#10040
0)
0P
#10060
1)
1P
0R
0*
#10080
0)
0P
#10100
1)
1P
1R
1*
1S
1+
0T
0,
#10120
0)
0P
#10140
1)
1P
0R
0*
#10160
0)
0P
#10180
1)
1P
1R
1*
0S
0+
#10200
0)
0P
#10220
1)
1P
0R
0*
#10240
0)
0P
#10260
1)
1P
1R
1*
1S
1+
1T
1,
1U
1-
1V
1.
1W
1/
1X
10
1Y
11
0Z
02
#10280
0)
0P
#10300
1)
1P
0R
0*
#10320
0)
0P
#10340
1)
1P
1R
1*
0S
0+
#10360
0)
0P
#10380
1)
1P
0R
0*
#10400
0)
0P
#10420
1)
1P
1R
1*
1S
1+
0T
0,
#10440
0)
0P
#10460
1)
1P
0R
0*
#10480
0)
0P
#10500
1)
1P
1R
1*
0S
0+
#10520
0)
0P
#10540
1)
1P
0R
0*
#10560
0)
0P
#10580
1)
1P
1R
1*
1S
1+
1T
1,
0U
0-
#10600
0)
0P
#10620
1)
1P
0R
0*
#10640
0)
0P
#10660
1)
1P
1R
1*
0S
0+
#10680
0)
0P
#10700
1)
1P
0R
0*
#10720
0)
0P
#10740
1)
1P
1R
1*
1S
1+
0T
0,
#10760
0)
0P
#10780
1)
1P
0R
0*
#10800
0)
0P
#10820
1)
1P
1R
1*
0S
0+
#10840
0)
0P
#10860
1)
1P
0R
0*
#10880
0)
0P
#10900
1)
1P
1R
1*
1S
1+
1T
1,
1U
1-
0V
0.
#10920
0)
0P
#10940
1)
1P
0R
0*
#10960
0)
0P
#10980
1)
1P
1R
1*
0S
0+
#11000
0)
0P
#11020
1)
1P
0R
0*
#11040
0)
0P
#11060
1)
1P
1R
1*
1S
1+
0T
0,
#11080
0)
0P
#11100
1)
1P
0R
0*
#11120
0)
0P
#11140
1)
1P
1R
1*
0S
0+
#11160
0)
0P
#11180
1)
1P
0R
0*
#11200
0)
0P
#11220
1)
1P
1R
1*
1S
1+
1T
1,
0U
0-
#11240
0)
0P
#11260
1)
1P
0R
0*
#11280
0)
0P
#11300
1)
1P
1R
1*
0S
0+
#11320
0)
0P
#11340
1)
1P
0R
0*
#11360
0)
0P
#11380
1)
1P
1R
1*
1S
1+
0T
0,
#11400
0)
0P
#11420
1)
1P
0R
0*
#11440
0)
0P
#11460
1)
1P
1R
1*
0S
0+
#11480
0)
0P
#11500
1)
1P
0R
0*
#11520
0)
0P
#11540
1)
1P
1R
1*
1S
1+
1T
1,
1U
1-
1V
1.
0W
0/
#11560
0)
0P
#11580
1)
1P
0R
0*
#11600
0)
0P
#11620
1)
1P
1R
1*
0S
0+
#11640
0)
0P
#11660
1)
1P
0R
0*
#11680
0)
0P
#11700
1)
1P
1R
1*
1S
1+
0T
0,
#11720
0)
0P
#11740
1)
1P
0R
0*
#11760
0)
0P
#11780
1)
1P
1R
1*
0S
0+
#11800
0)
0P
#11820
1)
1P
0R
0*
#11840
0)
0P
#11860
1)
1P
1R
1*
1S
1+
1T
1,
0U
0-
#11880
0)
0P
#11900
1)
1P
0R
0*
#11920
0)
0P
#11940
1)
1P
1R
1*
0S
0+
#11960
0)
0P
#11980
1)
1P
0R
0*
#12000
0)
0P
#12020
1)
1P
1R
1*
1S
1+
0T
0,
#12040
0)
0P
#12060
1)
1P
0R
0*
#12080
0)
0P
#12100
1)
1P
1R
1*
0S
0+
#12120
0)
0P
#12140
1)
1P
0R
0*
#12160
0)
0P
#12180
1)
1P
1R
1*
1S
1+
1T
1,
1U
1-
0V
0.
#12200
0)
0P
#12220
1)
1P
0R
0*
#12240
0)
0P
#12260
1)
1P
1R
1*
0S
0+
#12280
0)
0P
#12300
1)
1P
0R
0*
#12320
0)
0P
#12340
1)
1P
1R
1*
1S
1+
0T
0,
#12360
0)
0P
#12380
1)
1P
0R
0*
#12400
0)
0P
#12420
1)
1P
1R
1*
0S
0+
#12440
0)
0P
#12460
1)
1P
0R
0*
#12480
0)
0P
#12500
1)
1P
1R
1*
1S
1+
1T
1,
0U
0-
#12520
0)
0P
#12540
1)
1P
0R
0*
#12560
0)
0P
#12580
1)
1P
1R
1*
0S
0+
#12600
0)
0P
#12620
1)
1P
0R
0*
#12640
0)
0P
#12660
1)
1P
1R
1*
1S
1+
0T
0,
#12680
0)
0P
#12700
1)
1P
0R
0*
#12720
0)
0P
#12740
1)
1P
1R
1*
0S
0+
#12760
0)
0P
#12780
1)
1P
0R
0*
#12800
0)
0P
#12820
1)
1P
1R
1*
1S
1+
1T
1,
1U
1-
1V
1.
1W
1/
0X
00
#12840
0)
0P
#12860
1)
1P
0R
0*
#12880
0)
0P
#12900
1)
1P
1R
1*
0S
0+
#12920
0)
0P
#12940
1)
1P
0R
0*
#12960
0)
0P
#12980
1)
1P
1R
1*
1S
1+
0T
0,
#13000
0)
0P
#13020
1)
1P
0R
0*
#13040
0)
0P
#13060
1)
1P
1R
1*
0S
0+
#13080
0)
0P
#13100
1)
1P
0R
0*
#13120
0)
0P
#13140
1)
1P
1R
1*
1S
1+
1T
1,
0U
0-
#13160
0)
0P
#13180
1)
1P
0R
0*
#13200
0)
0P
#13220
1)
1P
1R
1*
0S
0+
#13240
0)
0P
#13260
1)
1P
0R
0*
#13280
0)
0P
#13300
1)
1P
1R
1*
1S
1+
0T
0,
#13320
0)
0P
#13340
1)
1P
0R
0*
#13360
0)
0P
#13380
1)
1P
1R
1*
0S
0+
#13400
0)
0P
#13420
1)
1P
0R
0*
#13440
0)
0P
#13460
1)
1P
1R
1*
1S
1+
1T
1,
1U
1-
0V
0.
#13480
0)
0P
#13500
1)
1P
0R
0*
#13520
0)
0P
#13540
1)
1P
1R
1*
0S
0+
#13560
0)
0P
#13580
1)
1P
0R
0*
#13600
0)
0P
#13620
1)
1P
1R
1*
1S
1+
0T
0,
#13640
0)
0P
#13660
1)
1P
0R
0*
#13680
0)
0P
#13700
1)
1P
1R
1*
0S
0+
#13720
0)
0P
#13740
1)
1P
0R
0*
#13760
0)
0P
#13780
1)
1P
1R
1*
1S
1+
1T
1,
0U
0-
#13800
0)
0P
#13820
1)
1P
0R
0*
#13840
0)
0P
#13860
1)
1P
1R
1*
0S
0+
#13880
0)
0P
#13900
1)
1P
0R
0*
#13920
0)
0P
#13940
1)
1P
1R
1*
1S
1+
0T
0,
#13960
0)
0P
#13980
1)
1P
0R
0*
#14000
0)
0P
#14020
1)
1P
1R
1*
0S
0+
#14040
0)
0P
#14060
1)
1P
0R
0*
#14080
0)
0P
#14100
1)
1P
1R
1*
1S
1+
1T
1,
1U
1-
1V
1.
0W
0/
#14120
0)
0P
#14140
1)
1P
0R
0*
#14160
0)
0P
#14180
1)
1P
1R
1*
0S
0+
#14200
0)
0P
#14220
1)
1P
0R
0*
#14240
0)
0P
#14260
1)
1P
1R
1*
1S
1+
0T
0,
#14280
0)
0P
#14300
1)
1P
0R
0*
#14320
0)
0P
#14340
1)
1P
1R
1*
0S
0+
#14360
0)
0P
#14380
1)
1P
0R
0*
#14400
0)
0P
#14420
1)
1P
1R
1*
1S
1+
1T
1,
0U
0-
#14440
0)
0P
#14460
1)
1P
0R
0*
#14480
0)
0P
#14500
1)
1P
1R
1*
0S
0+
#14520
0)
0P
#14540
1)
1P
0R
0*
#14560
0)
0P
#14580
1)
1P
1R
1*
1S
1+
0T
0,
#14600
0)
0P
#14620
1)
1P
0R
0*
#14640
0)
0P
#14660
1)
1P
1R
1*
0S
0+
#14680
0)
0P
#14700
1)
1P
0R
0*
#14720
0)
0P
#14740
1)
1P
1R
1*
1S
1+
1T
1,
1U
1-
0V
0.
#14760
0)
0P
#14780
1)
1P
0R
0*
#14800
0)
0P
#14820
1)
1P
1R
1*
0S
0+
#14840
0)
0P
#14860
1)
1P
0R
0*
#14880
0)
0P
#14900
1)
1P
1R
1*
1S
1+
0T
0,
#14920
0)
0P
#14940
1)
1P
0R
0*
#14960
0)
0P
#14980
1)
1P
1R
1*
0S
0+
#15000
0)
0P
#15020
1)
1P
0R
0*
#15040
0)
0P
#15060
1)
1P
1R
1*
1S
1+
1T
1,
0U
0-
#15080
0)
0P
#15100
1)
1P
0R
0*
#15120
0)
0P
#15140
1)
1P
1R
1*
0S
0+
#15160
0)
0P
#15180
1)
1P
0R
0*
#15200
0)
0P
#15220
1)
1P
1R
1*
1S
1+
0T
0,
#15240
0)
0P
#15260
1)
1P
0R
0*
#15280
0)
0P
#15300
1)
1P
1R
1*
0S
0+
#15320
0)
0P
#15340
1)
1P
0R
0*
#15360
0)
0P
#15380
1)
1P
1R
1*
1S
1+
1T
1,
1U
1-
1V
1.
1W
1/
1X
10
0Y
01
#15400
0)
0P
#15420
1)
1P
0R
0*
#15440
0)
0P
#15460
1)
1P
1R
1*
0S
0+
#15480
0)
0P
#15500
1)
1P
0R
0*
#15520
0)
0P
#15540
1)
1P
1R
1*
1S
1+
0T
0,
#15560
0)
0P
#15580
1)
1P
0R
0*
#15600
0)
0P
#15620
1)
1P
1R
1*
0S
0+
#15640
0)
0P
#15660
1)
1P
0R
0*
#15680
0)
0P
#15700
1)
1P
1R
1*
1S
1+
1T
1,
0U
0-
#15720
0)
0P
#15740
1)
1P
0R
0*
#15760
0)
0P
#15780
1)
1P
1R
1*
0S
0+
#15800
0)
0P
#15820
1)
1P
0R
0*
#15840
0)
0P
#15860
1)
1P
1R
1*
1S
1+
0T
0,
#15880
0)
0P
#15900
1)
1P
0R
0*
#15920
0)
0P
#15940
1)
1P
1R
1*
0S
0+
#15960
0)
0P
#15980
1)
1P
0R
0*
#16000
0)
0P
#16020
1)
1P
1R
1*
1S
1+
1T
1,
1U
1-
0V
0.
#16040
0)
0P
#16060
1)
1P
0R
0*
#16080
0)
0P
#16100
1)
1P
1R
1*
0S
0+
#16120
0)
0P
#16140
1)
1P
0R
0*
#16160
0)
0P
#16180
1)
1P
1R
1*
1S
1+
0T
0,
#16200
0)
0P
#16220
1)
1P
0R
0*
#16240
0)
0P
#16260
1)
1P
1R
1*
0S
0+
#16280
0)
0P
#16300
1)
1P
0R
0*
#16320
0)
0P
#16340
1)
1P
1R
1*
1S
1+
1T
1,
0U
0-
#16360
0)
0P
#16380
1)
1P
0R
0*
#16400
0)
0P
#16420
1)
1P
1R
1*
0S
0+
#16440
0)
0P
#16460
1)
1P
0R
0*
#16480
0)
0P
