PROJETO 2/simulation/qsim/PBL2.msim.vcd
$comment
	File created using the following command:
		vcd file PBL2.msim.vcd -direction
$end
$date
	Wed Oct 04 23:19:54 2023
$end
$version
	ModelSim Version 2020.1
$end
$timescale
	1ps
$end

$scope module divided_frequecy_vlg_vec_tst $end
$var reg 1 ! clk $end
$var reg 1 " rstn $end
$var wire 1 # out [17] $end
$var wire 1 $ out [16] $end
$var wire 1 % out [15] $end
$var wire 1 & out [14] $end
$var wire 1 ' out [13] $end
$var wire 1 ( out [12] $end
$var wire 1 ) out [11] $end
$var wire 1 * out [10] $end
$var wire 1 + out [9] $end
$var wire 1 , out [8] $end
$var wire 1 - out [7] $end
$var wire 1 . out [6] $end
$var wire 1 / out [5] $end
$var wire 1 0 out [4] $end
$var wire 1 1 out [3] $end
$var wire 1 2 out [2] $end
$var wire 1 3 out [1] $end
$var wire 1 4 out [0] $end

$scope module i1 $end
$var wire 1 5 gnd $end
$var wire 1 6 vcc $end
$var wire 1 7 unknown $end
$var tri1 1 8 devclrn $end
$var tri1 1 9 devpor $end
$var tri1 1 : devoe $end
$var wire 1 ; clk~combout $end
$var wire 1 < rstn~combout $end
$var wire 1 = dff0|q~regout $end
$var wire 1 > dff1|q~regout $end
$var wire 1 ? dff2|q~regout $end
$var wire 1 @ dff3|q~regout $end
$var wire 1 A dff4|q~regout $end
$var wire 1 B dff5|q~regout $end
$var wire 1 C dff6|q~regout $end
$var wire 1 D dff7|q~regout $end
$var wire 1 E dff8|q~regout $end
$var wire 1 F dff9|q~regout $end
$var wire 1 G dff10|q~regout $end
$var wire 1 H dff11|q~regout $end
$var wire 1 I dff12|q~regout $end
$var wire 1 J dff13|q~regout $end
$var wire 1 K dff14|q~regout $end
$var wire 1 L dff15|q~regout $end
$var wire 1 M dff16|q~regout $end
$var wire 1 N dff17|q~regout $end
$upscope $end
$upscope $end
$enddefinitions $end
#0
$dumpvars
0!
1"
14
13
12
11
10
1/
1.
1-
1,
1+
1*
1)
1(
1'
1&
1%
1$
1#
05
16
x7
18
19
1:
0;
1<
0=
0>
0?
0@
0A
0B
0C
0D
0E
0F
0G
0H
0I
0J
0K
0L
0M
0N
$end
#10000
1!
1;
1=
04
1>
03
1?
02
1@
01
1A
00
1B
0/
1C
0.
1D
0-
1E
0,
1F
0+
1G
0*
1H
0)
1I
0(
1J
0'
1K
0&
1L
0%
1M
0$
1N
0#
#20000
0!
0;
#30000
1!
1;
0=
14
#40000
0!
0;
#50000
1!
1;
1=
04
0>
13
#60000
0!
0;
#70000
1!
1;
0=
14
#80000
0!
0;
#90000
1!
1;
1=
04
1>
03
0?
12
#100000
0!
0;
#110000
1!
1;
0=
14
#120000
0!
0;
#130000
1!
1;
1=
04
0>
13
#140000
0!
0;
#150000
1!
1;
0=
14
#160000
0!
0;
#170000
1!
1;
1=
04
1>
03
1?
02
0@
11
#180000
0!
0;
#190000
1!
1;
0=
14
#200000
0!
0;
#210000
1!
1;
1=
04
0>
13
#220000
0!
0;
#230000
1!
1;
0=
14
#240000
0!
0;
#250000
1!
1;
1=
04
1>
03
0?
12
#260000
0!
0;
#270000
1!
1;
0=
14
#280000
0!
0;
#290000
1!
1;
1=
04
0>
13
#300000
0!
0;
#310000
1!
1;
0=
14
#320000
0!
0;
#330000
1!
1;
1=
04
1>
03
1?
02
1@
01
0A
10
#340000
0!
0;
#350000
1!
1;
0=
14
#360000
0!
0;
#370000
1!
1;
1=
04
0>
13
#380000
0!
0;
#390000
1!
1;
0=
14
#400000
0!
0;
#410000
1!
1;
1=
04
1>
03
0?
12
#420000
0!
0;
#430000
1!
1;
0=
14
#440000
0!
0;
#450000
1!
1;
1=
04
0>
13
#460000
0!
0;
#470000
1!
1;
0=
14
#480000
0!
0;
#490000
1!
1;
1=
04
1>
03
1?
02
0@
11
#500000
0!
0;
#510000
1!
1;
0=
14
#520000
0!
0;
#530000
1!
1;
1=
04
0>
13
#540000
0!
0;
#550000
1!
1;
0=
14
#560000
0!
0;
#570000
1!
1;
1=
04
1>
03
0?
12
#580000
0!
0;
#590000
1!
1;
0=
14
#600000
0!
0;
#610000
1!
1;
1=
04
0>
13
#620000
0!
0;
#630000
1!
1;
0=
14
#640000
0!
0;
#650000
1!
1;
1=
04
1>
03
1?
02
1@
01
1A
00
0B
1/
#660000
0!
0;
#670000
1!
1;
0=
14
#680000
0!
0;
#690000
1!
1;
1=
04
0>
13
#700000
0!
0;
#710000
1!
1;
0=
14
#720000
0!
0;
#730000
1!
1;
1=
04
1>
03
0?
12
#740000
0!
0;
#750000
1!
1;
0=
14
#760000
0!
0;
#770000
1!
1;
1=
04
0>
13
#780000
0!
0;
#790000
1!
1;
0=
14
#800000
0!
0;
#810000
1!
1;
1=
04
1>
03
1?
02
0@
11
#820000
0!
0;
#830000
1!
1;
0=
14
#840000
0!
0;
#850000
1!
1;
1=
04
0>
13
#860000
0!
0;
#870000
1!
1;
0=
14
#880000
0!
0;
#890000
1!
1;
1=
04
1>
03
0?
12
#900000
0!
0;
#910000
1!
1;
0=
14
#920000
0!
0;
#930000
1!
1;
1=
04
0>
13
#940000
0!
0;
#950000
1!
1;
0=
14
#960000
0!
0;
#970000
1!
1;
1=
04
1>
03
1?
02
1@
01
0A
10
#980000
0!
0;
#990000
1!
1;
0=
14
